20501 39164 324
29632 44434 324
16859 21973 279
13588 23680 282
34584 40245 324
16368 34396 311
38989 47979 314
23290 43088 324
13068 16306 276
29295 41576 324
7425 26270 282
5594 29847 308
13155 19164 279
6927 12690 268
8643 20383 279
11268 37986 324
9521 44645 324
14685 32456 308
22189 24769 282
5740 34493 311
8454 38498 324
27048 28354 259
16251 38638 324
11600 11984 250
13803 19666 279
6284 27197 308
26747 42370 324
21589 25179 282
23859 47195 324
12789 28509 308
31541 47731 324
17679 27352 308
39691 45556 314
6562 24987 282
9455 46749 324
10412 43125 324
20851 24089 282
22936 49472 324
11180 17505 276
15443 29778 308
24046 38508 324
30004 45589 324
8033 39060 324
30289 36276 324
11361 43192 324
6719 41182 324
22495 42848 324
8303 37125 324
20760 26362 282
25436 47952 324
60023 105370 351
66830 146809 375
98638 160703 383
85667 234956 443
156723 205657 370
73312 235777 443
55886 62005 335
146365 196816 383
77014 239452 443
93545 120743 354
52697 166956 383
100214 248075 443
184669 214795 373
98064 186180 383
136256 182987 383
178596 198817 365
53369 196053 383
120106 144841 375
191483 221674 386
164039 211721 373
97662 223608 386
153118 215135 383
72507 210242 383
114730 138855 349
85874 195227 383
170731 244217 443
78181 114322 354
60998 118506 354
95983 242604 443
144027 159359 383
109443 118890 349
83097 125351 354
66216 110315 354
122004 199876 383
114500 243988 443
94884 137804 354
76251 120516 354
87651 104639 341
80777 164965 383
58383 60907 317
187374 240599 443
122191 147820 375
163245 220313 386
122296 123640 331
53988 105226 351
98968 203021 383
78355 225093 386
69610 83881 351
58533 204614 383
173334 177028 334
298393 376708 441
279029 618218 470
252254 435678 449
522794 548314 452
639401 644050 416
269191 606820 470
267555 668741 509
347756 631672 509
380058 547521 470
575791 644419 509
476760 663940 509
305906 328019 384
900000 1000000 507
