1 10 20
100 200 125
201 210 89
900 1000 174
385625 845408 525
767150 179063 509
811007 280175 509
63024 696975 509
809019 177575 509
344625 997275 525
926310 783840 525
459818 738448 509
840118 172245 525
805651 933887 525
548055 73323 470
128616 503545 449
299472 659948 509
389379 2705 443
166384 727939 509
599878 893186 525
734626 701298 504
839046 834222 525
67825 294560 443
790681 439362 509
686607 541471 509
128356 480378 449
27599 330626 443
755611 977079 525
920732 245265 525
911460 355460 525
693742 56059 509
350528 691127 509
662849 259145 509
617557 669633 509
745093 234650 509
763177 418384 509
382605 449010 449
364185 715451 509
861222 48734 525
722174 522716 509
646806 410502 509
147444 424686 449
674692 736007 504
444427 126258 449
994967 416564 525
850526 659735 525
430851 678396 509
257210 577414 470
99477 482498 449
320300 720994 509
201786 859641 525
739800 983003 525
313562 563463 470
896080 327292 525
21037 595479 470
651386 370101 509
424841 733872 509
816927 454839 509
983967 326736 525
830731 598393 509
245442 748277 509
866067 671653 525
871670 746447 525
280846 725527 509
553942 592570 434
963455 37173 525
902664 145461 525
556718 802724 509
727604 961593 525
533135 144155 470
642969 68270 509
451854 983415 525
713311 418753 509
580347 40115 470
813079 639387 504
377728 384970 379
840625 160056 525
360336 885114 525
3036 48272 324
696355 894065 525
992202 68049 525
343573 383344 441
553721 431149 470
251091 851526 525
275024 953311 525
172605 742109 509
996814 168962 525
477106 526776 470
245743 499601 449
608253 711338 509
893009 570563 525
623715 109398 470
537466 420674 470
77718 38739 351
304202 21102 443
476746 948083 525
617409 484479 470
608266 912678 525
291861 280334 389
669624 54962 509
704934 26048 509
515635 194531 470
616404 738598 509
757453 792111 468
342022 390761 441
938806 287413 525
894411 924488 476
222826 900404 525
758180 611412 509
108366 532264 470
593433 187931 470
948679 149835 525
761923 887316 525
712592 436168 509
